{
    "data": {
        "currency": "USD",
        "rates": {
            "00": "7.1556350626118068",
            "1INCH": "1.56128024980484",
            "AAVE": "0.0074346678562135",
            "ABT": "0.5947955390334572",
            "ACH": "29.7172404570511582",
            "ACS": "258.1111426580285471",
            "ADA": "1.3699568463593397",
            "AED": "3.6729",
            "AERGO": "5.4629882545752527",
            "AERO": "1.6919901187777063",
            "AFN": "71.83267",
            "AGLD": "0.5576622797233995",
            "AIOZ": "1.2766500702157539",
            "ALCX": "0.027866796711718",
            "ALEPH": "2.4449877750611247",
            "ALGO": "3.4674063800277393",
            "ALICE": "0.4496402877697842",
            "ALL": "95.0237427485234",
            "AMD": "403.081962",
            "AMP": "187.0907390084190833",
            "ANG": "1.7963135",
            "ANKR": "19.2994306667953295",
            "ANT": "0.098234722044854",
            "AOA": "835.5",
            "APE": "0.441598586884522",
            "API3": "0.2620201755535176",
            "APT": "0.0760456273764259",
            "ARB": "0.4862039625622949",
            "ARPA": "12.7145581691036236",
            "ARS": "848.2421916666666667",
            "ASM": "20.1288244766505636",
            "AST": "5.4436581382689167",
            "ATA": "6.4713092622213213",
            "ATOM": "0.0748334954725735",
            "AUCTION": "0.0374953130858643",
            "AUD": "1.5148793333333333",
            "AUDIO": "3.0897574540398579",
            "AURORA": "3.0674846625766871",
            "AVAX": "0.0215749730312837",
            "AVT": "0.1583531274742676",
            "AWG": "1.7999999999999999",
            "AXL": "0.4460701222232135",
            "AXS": "0.0812677773262901",
            "AZN": "1.7036",
            "BADGER": "0.1654259718775848",
            "BAL": "0.1718213058419244",
            "BAM": "1.7894865843396029",
            "BAND": "0.3838034926117828",
            "BAT": "2.7396884974178436",
            "BBD": "2",
            "BCH": "0.0022990355545849",
            "BDT": "109.7698",
            "BGN": "1.79002",
            "BHD": "0.376827",
            "BICO": "1.6219284729543427",
            "BIF": "2866.1230319681662184",
            "BIGTIME": "1.830697129466901",
            "BIT": "0.9024049090827054",
            "BLUR": "1.4412336960438135",
            "BLZ": "2.6298487836949375",
            "BMD": "1",
            "BND": "1.3305334543324163",
            "BNT": "1.0167768174885613",
            "BOB": "6.9159439656248365",
            "BOBA": "1.7265193370165746",
            "BOND": "0.2258564470926324",
            "BONK": "32840.722495894909688",
            "BRL": "4.9739333333333333",
            "BSD": "1",
            "BSV": "0.0088780431814364",
            "BTC": "0.0000139798452571",
            "BTN": "82.7580022003235305",
            "BTRST": "1.0454783063251438",
            "BUSD": "0.9801966795498679",
            "BWP": "13.5633259436807764",
            "BYN": "3.2733409999996946",
            "BYR": "32733.4",
            "BZD": "2.0183845",
            "C98": "2.3454907939486338",
            "CAD": "1.3504106572954803",
            "CBETH": "0.0002344446007408",
            "CDF": "2770",
            "CELR": "27.9602963791416189",
            "CGLD": "0.6025911419102139",
            "CHF": "0.8786422868251106",
            "CHZ": "6.6247101689301093",
            "CLF": "0.0350043",
            "CLP": "965.5483333333333333",
            "CLV": "11.627906976744186",
            "CNH": "7.1848339893976653",
            "CNY": "7.1816999972151827",
            "COMP": "0.0113934146063575",
            "COP": "3902.1295676776555499",
            "COTI": "4.1893590280687055",
            "COVAL": "28.889209880109779",
            "CRC": "511.1006546666666667",
            "CRO": "6.0350030175015088",
            "CRPT": "16.3540996775371293",
            "CRV": "1.2201073694485115",
            "CTSI": "2.6784518548279095",
            "CTX": "0.2469135802469136",
            "CUC": "1",
            "CUP": "25.369458128078779",
            "CVC": "6.7567567567567568",
            "CVE": "101.0584562406919941",
            "CVX": "0.2035830618892508",
            "CZK": "23.1900998443301117",
            "DAI": "1.0001500225033755",
            "DAR": "3.816793893129771",
            "DASH": "0.0242600679281902",
            "DDX": "14.7399025649968402",
            "DESO": "0.0260654242147791",
            "DEXT": "0.997307270370001",
            "DIA": "1.6487502473125371",
            "DIMO": "1.7663475465432579",
            "DJF": "177.9139695",
            "DKK": "6.8278282859842976",
            "DNT": "7.8064012490241998",
            "DOGE": "5.8127706571337228",
            "DOP": "58.8016666666666667",
            "DOT": "0.0933488914819137",
            "DREP": "1.6272800669811963",
            "DYP": "2.6533292648951272",
            "DZD": "134.3893983813286967",
            "EEK": "14.3306999999999958",
            "EGLD": "0.0146466495789088",
            "EGP": "49.023449999948895",
            "ELA": "0.2444987775061125",
            "ENJ": "1.5197568389057751",
            "ENS": "0.0397377309755613",
            "EOS": "0.8531695247845747",
            "ERN": "0.1809954751131222",
            "ETB": "56.5904666666666667",
            "ETC": "0.0272405339144647",
            "ETH": "0.0002485246952777",
            "ETH2": "0.0002485246952777",
            "EUR": "0.9158302398063609",
            "EUROC": "0.9184423218221896",
            "FARM": "0.0182415176942722",
            "FET": "0.3634579388300289",
            "FIDA": "2.0593080724876442",
            "FIL": "0.0894734487540822",
            "FIS": "1.3952839402818474",
            "FJD": "2.2481489453644516",
            "FKP": "0.7799113552753594",
            "FLOW": "0.6798096532970768",
            "FLR": "24.5549416820135052",
            "FORT": "3.3161996352180401",
            "FORTH": "0.2061855670103093",
            "FOX": "8.0840743734842361",
            "FX": "4.6500813764240874",
            "GAL": "0.214041095890411",
            "GALA": "13.3065797285926056",
            "GBP": "0.7799408149037899",
            "GEL": "2.655",
            "GFI": "0.6768418559003689",
            "GGP": "0.7799112223556849",
            "GHS": "12.8058333333333333",
            "GHST": "0.8312551953449709",
            "GIP": "0.7799112169012747",
            "GLM": "1.595405232929164",
            "GMD": "67.9312494249699553",
            "GMT": "2.7739251040221914",
            "GNF": "8592.11",
            "GNO": "0.0023118447365075",
            "GNT": "1.5967939290450563",
            "GODS": "2.2263037791506651",
            "GRT": "2.281021897810219",
            "GST": "15.5962444243426183",
            "GTC": "0.4264392324093817",
            "GTQ": "7.8086656783764799",
            "GUSD": "1.0005002501250625",
            "GYD": "209.3797045",
            "GYEN": "149.1535535834141248",
            "HBAR": "7.7678952887715074",
            "HFT": "1.9958088015168147",
            "HIGH": "0.427807486631016",
            "HKD": "7.8198066664506895",
            "HNL": "24.6895956192080794",
            "HNT": "0.1174881043294366",
            "HONEY": "5.2714812862414338",
            "HOPR": "5.750431282346176",
            "HRK": "6.8994415",
            "HTG": "132.5520762568077752",
            "HUF": "362.0370990105811341",
            "ICP": "0.0698397178475399",
            "IDEX": "11.8203309692671395",
            "IDR": "15525.4198626666666667",
            "ILS": "3.613982499859919",
            "ILV": "0.0070422535211268",
            "IMP": "0.7799112169012747",
            "IMX": "0.2860452809679772",
            "INDEX": "0.1724137931034483",
            "INJ": "0.0247622820919176",
            "INR": "82.7391496666666667",
            "INV": "0.0205338809034908",
            "IOTX": "13.5924969416881881",
            "IQD": "1309.9999999999214",
            "IRR": "42039.9999999192832",
            "ISK": "136.2799992662155185",
            "JASMY": "45.5477112275108176",
            "JEP": "0.7799112169012747",
            "JMD": "155.095916",
            "JOD": "0.709",
            "JPY": "146.9554975148952865",
            "JTO": "0.3681885125184094",
            "JUP": "637.3076089831909896",
            "KAVA": "0.945179584120983",
            "KEEP": "5.4917897742874403",
            "KES": "139.1333333333333333",
            "KGS": "89.43",
            "KHR": "4055.9899999746182311",
            "KMF": "450.070341264352371",
            "KNC": "1.032577830553978",
            "KPW": "135.000000000000135",
            "KRL": "1.5288182235132243",
            "KRW": "1312.7809779992130978",
            "KSM": "0.0187125748502994",
            "KWD": "0.3071103333333333",
            "KYD": "0.8334204908134609",
            "KZT": "450.1718006666666667",
            "LAK": "20879.648629168558014",
            "LBP": "89700.000000299598",
            "LCX": "3.6436509382401166",
            "LDO": "0.302571860816944",
            "LINK": "0.0474237071111849",
            "LIT": "0.6184100677159024",
            "LKR": "306.963193",
            "LOKA": "2.2857142857142857",
            "LOOM": "8.3509115530856739",
            "LPT": "0.0480769230769231",
            "LQTY": "0.5723934632666495",
            "LRC": "2.2686025408348457",
            "LRD": "192.4375026875941093",
            "LSETH": "0.0002367216886778",
            "LSL": "18.6985",
            "LTC": "0.0105385182843292",
            "LTL": "3.0002449670977722",
            "LVL": "0.643696",
            "LYD": "4.81",
            "MAD": "10.0337877672526175",
            "MAGIC": "0.7087172218284904",
            "MANA": "1.3032712107389548",
            "MASK": "0.1964636542239686",
            "MATH": "3.9393342525113256",
            "MATIC": "0.8291186468783683",
            "MCO2": "1.2841730184042521",
            "MDL": "17.660214",
            "MDT": "8.2294366950582233",
            "MEDIA": "0.0526731630234396",
            "METIS": "0.0073983649613435",
            "MGA": "4509.9866666666666667",
            "MINA": "0.6178560395427865",
            "MIR": "8.5151387794725181",
            "MKD": "56.3709335",
            "MKR": "0.000381831684775",
            "MLN": "0.040650406504065",
            "MMK": "2099.557961",
            "MNDE": "3.4375483405235386",
            "MNT": "3425",
            "MOBILE": "238.0385622470840276",
            "MONA": "0.0042106530607274",
            "MOP": "8.0554958641776962",
            "MPL": "0.0595592614651578",
            "MRO": "378.3375",
            "MRU": "39.9162499608555846",
            "MSOL": "0.0057984460164676",
            "MTL": "0.423908435777872",
            "MULTI": "1.3279773094654441",
            "MUR": "45.7793759960730026",
            "MUSE": "0.0542799761168105",
            "MVR": "15.3925",
            "MWK": "1682.7499628583421046",
            "MXC": "41.1859088865657593",
            "MXN": "16.8132666666666667",
            "MYR": "4.6850000000000004",
            "MZN": "63.8400005",
            "NAD": "18.6984752787656852",
            "NCT": "28.8350634371395617",
            "NEAR": "0.142369020501139",
            "NEST": "197.1033117854495952",
            "NGN": "1594.8232074247721845",
            "NIO": "36.8298999997284942",
            "NKN": "5.7142857142857143",
            "NMR": "0.0217533173809006",
            "NOK": "10.4787229828102473",
            "NPR": "132.3793325461341202",
            "NU": "8.3473241956961723",
            "NZD": "1.6226329780188727",
            "OCEAN": "0.7996161842315688",
            "OGN": "4.347353548527334",
            "OMG": "0.8336322290042611",
            "OMR": "0.3849515",
            "ONDO": "1.6805310478111083",
            "OOKI": "332.6266635412511222",
            "OP": "0.2206044562100154",
            "ORCA": "0.2172519797086651",
            "ORN": "0.4195510803440319",
            "OSMO": "0.6107429688215714",
            "OXT": "6.2015503875968992",
            "PAB": "1",
            "PAX": "1.0066945185483465",
            "PEN": "3.688816661094306",
            "PERP": "0.6015218502812115",
            "PGK": "3.7859776549002716",
            "PHP": "55.344934",
            "PKR": "279.1706666666666667",
            "PLA": "3.8462633946631516",
            "PLN": "3.918975",
            "PLU": "0.1532567049808429",
            "PNG": "2.3820583366086635",
            "POLS": "1.009030825891731",
            "POLY": "7.4179584871629805",
            "POND": "27.7469478357380688",
            "POWR": "2.1463833440652501",
            "PRIME": "0.0542947116950809",
            "PRO": "1.4057777465382723",
            "PRQ": "5.813953488372093",
            "PUNDIX": "1.448960370933855",
            "PYG": "7284.302234",
            "PYR": "0.1002104419280489",
            "PYUSD": "1.0003301089359489",
            "QAR": "3.6411849988396635",
            "QI": "41.0635458371830408",
            "QNT": "0.0084033613445378",
            "QSP": "200.805982359775516",
            "QUICK": "0.011305611425576",
            "RAD": "0.3992015968063872",
            "RAI": "0.3623188405797101",
            "RARE": "5.3879310344827586",
            "RARI": "0.3095975232198142",
            "RBN": "0.6593979037740639",
            "REN": "10.1148795023770093",
            "RENDER": "0.0835456785997744",
            "REP": "0.7531677045001437",
            "REPV2": "0.7531677045001437",
            "REQ": "6.9905627403005942",
            "RGT": "1.5454837185798133",
            "RLC": "0.2366415826589048",
            "RLY": "47.1118699437153877",
            "RNDR": "0.0834721057090747",
            "RON": "4.5467499950514108",
            "ROSE": "5.6205035971223022",
            "RPL": "0.0275938189845475",
            "RSD": "107.3166295551324709",
            "RUB": "90.7829613747062925",
            "RWF": "1278",
            "SAND": "1.295001295001295",
            "SAR": "3.7506194998879515",
            "SBD": "8.4576025",
            "SCR": "14.2683000837414662",
            "SDG": "586.0000000000086728",
            "SEAM": "0.2090541345681464",
            "SEI": "1.1562030292519366",
            "SEK": "10.2534645879277282",
            "SGD": "1.3307626666666667",
            "SHIB": "30202.3557837511325883",
            "SHP": "0.7799112223556849",
            "SHPING": "69.8177756056692034",
            "SKK": "27.5923",
            "SKL": "9.9304865938430983",
            "SLL": "20341.4887216202738877",
            "SNT": "18.0614991370220068",
            "SNX": "0.2274536563175253",
            "SOL": "0.0068136135999727",
            "SOS": "571.4874997265789786",
            "SPA": "56.934639034388522",
            "SPELL": "733.0034817665383911",
            "SRD": "35.4497",
            "SSP": "1602.8601999999907153",
            "STD": "22335.96799439734714",
            "STG": "1.2368307108139283",
            "STORJ": "1.1344942991661467",
            "STRK": "0.4172751929897768",
            "STX": "0.3186438517668802",
            "SUI": "0.6503642039542144",
            "SUKU": "6.5146579804560261",
            "SUPER": "0.7022422595346943",
            "SUSHI": "0.5116659844453541",
            "SVC": "8.7508625",
            "SWFTC": "159.1849729385546004",
            "SYLO": "201.2925646091783919",
            "SYN": "0.6406149903907751",
            "SYP": "512.795",
            "SZL": "18.6984752787656852",
            "T": "26.140373807345445",
            "THB": "35.4334999717780606",
            "TIA": "0.0622800734904867",
            "TIME": "0.0312646553071752",
            "TJS": "10.9575714999258715",
            "TMM": "17549.99999998674975",
            "TMT": "3.51",
            "TND": "3.093875",
            "TONE": "701.0806890802254539",
            "TOP": "2.356932561171658",
            "TRAC": "0.6934091460666366",
            "TRB": "0.0097737379660851",
            "TRIBE": "2.9316114393659171",
            "TRU": "12.143290831815422",
            "TRY": "32.011033",
            "TTD": "6.793912",
            "TVK": "4.9019607843137255",
            "TWD": "31.437134",
            "TZS": "2550.3019967299344975",
            "UAH": "38.3934146666666667",
            "UGX": "3904.770443",
            "UMA": "0.216708202405461",
            "UNFI": "0.1196888090963495",
            "UNI": "0.070566650201115",
            "UPI": "1335.4390066148929137",
            "USD": "1.0",
            "USDC": "1",
            "USDT": "0.9996151481679553",
            "UST": "28.9287018695008085",
            "UYU": "38.7815433333333333",
            "UZS": "12515.643881",
            "VARA": "10.9691219217901607",
            "VEF": "3614510",
            "VELO": "8.8179533530267625",
            "VES": "36.145082",
            "VET": "20.7447360232341043",
            "VGX": "7.0036705773787706",
            "VND": "24698.6793158883626431",
            "VOXEL": "2.5677237129284889",
            "VTHO": "223.3139794551138901",
            "VUV": "115.863807609698652",
            "WAMPL": "0.0543035568829758",
            "WAXL": "0.4466578823949796",
            "WBTC": "0.0000139679621044",
            "WCFG": "1.2853470437017995",
            "WLUNA": "16415.4061581293782301",
            "WST": "2.7683768370335859",
            "XAF": "603.9727450798596105",
            "XAG": "0.040939055",
            "XAU": "0.0004583869316538",
            "XCD": "2.7012743982008496",
            "XCN": "410.6776180698151951",
            "XDR": "0.749417",
            "XLM": "6.9551428064696738",
            "XMON": "0.0010199655293977",
            "XOF": "600.4878905063428982",
            "XPD": "0.0009751225",
            "XPF": "109.2853519627278862",
            "XPT": "0.0010733795941791",
            "XRP": "1.6182539040375435",
            "XTZ": "0.6851661527920521",
            "XYO": "72.7008360596146856",
            "YER": "250.306673652630992",
            "YFI": "0.0000989306095758",
            "YFII": "0.0015080951771698",
            "ZAR": "18.6769819934831702",
            "ZEC": "0.0304738686576261",
            "ZEN": "0.0751032669921142",
            "ZETA": "0.4211146905859811",
            "ZMK": "5223.775",
            "ZMW": "24.4198424211296641",
            "ZRX": "1.0568584565322043",
            "ZWD": "377.3820879703223773"
        }
    }
}